ds202_hw5
…
library(dplyr)

data1 <-data %>% separate(`Store Location`, c("address1", "address2", "coords"), sep = "\n") %>% 
  mutate(coords = gsub("[()]", "", coords)) %>% 
  separate(coords, c("latitude", "longitude"), sep = ",") 

## Warning: Expected 3 pieces. Missing pieces filled with `NA` in 46099 rows
## [88, 89, 90, 91, 92, 93, 94, 95, 96, 97, 98, 99, 100, 101, 102, 103, 104,
## 105, 106, 107, ...].

data1[10:11] #extracting latitude and longitude

## # A tibble: 382,033 x 2
##    latitude  longitude    
##    <chr>     <chr>        
##  1 42.022854 " -93.618911"
##  2 42.022854 " -93.618911"
##  3 42.022854 " -93.618911"
##  4 42.022854 " -93.618911"
##  5 42.001123 " -93.613648"
##  6 42.001123 " -93.613648"
##  7 42.001123 " -93.613648"
##  8 42.001123 " -93.613648"
##  9 42.001123 " -93.613648"
## 10 42.001123 " -93.613648"
## # ... with 382,023 more rows
…
data1$Date <- mdy(data1$Date)
data1$`Vendor Number` <- as.numeric(data1$`Vendor Number`)
data1$latitude <- as.numeric(data1$latitude)
data1$longitude <- as.numeric(data1$longitude)
data1$County <- factor(data1$County)
data1$`Category Name` <- factor(data1$`Category Name`)

data4 <- data %>% separate(Date, c("month", "day", "year"), sep = "/") 

data4[2:4] #extracting month , day, year

## # A tibble: 382,033 x 3
##    month day   year 
##    <chr> <chr> <chr>
##  1 10    31    2018 
##  2 10    31    2018 
##  3 10    31    2018 
##  4 10    31    2018 
##  5 10    31    2018 
##  6 10    31    2018 
##  7 10    31    2018 
##  8 10    31    2018 
##  9 10    31    2018 
## 10 10    31    2018 
## # ... with 382,023 more rows
…
#subsetting to liquor sales in Ames in 2018.
data2 <- data1[year(data1$Date)=='2018',]

#Summarize number of sales, volume of liquor sold and amount of money spent
data2 %>% group_by(yday(Date)) %>% summarize(number.of.sales=sum(`Bottles Sold`),
                                            volume.of.liquor=sum(`Volume Sold (Liters)`),
                                            money.spent=sum(`Sale (Dollars)`))

## # A tibble: 146 x 4
##    `yday(Date)` number.of.sales volume.of.liquor money.spent
##           <dbl>           <dbl>            <dbl>       <dbl>
##  1            3            7133          6596.      104862. 
##  2            5            2632          1966.       31048. 
##  3           10           10413         10250.      141905. 
##  4           12            1510          1347.       17881. 
##  5           17           10449         10196.      159217. 
##  6           18               1             0.75        11.2
##  7           19            1241          1148.       15664. 
##  8           22               3             2.25         0  
##  9           24            8625          8273.      124823. 
## 10           25               1             0.75        20.8
## # ... with 136 more rows
…
